Business Report
…
It is important that the country variable does not have any missing values, filter() is used.

wine_ratings <-wine_ratings %>%
  filter(!is.na(country))

-

DESCRIPTIVE or EXPLORATORY ANALYSIS

wine_ratings %>%
  count(points)

## # A tibble: 21 x 2
##    points     n
##     <dbl> <int>
##  1     80   395
##  2     81   682
##  3     82  1796
##  4     83  2940
##  5     84  6170
##  6     85  8988
##  7     86 11386
##  8     87 15102
##  9     88 15116
## 10     89 11019
## # ... with 11 more rows

How many countries are in the dataset? TOP-5?

wine_ratings %>%
  count(country, sort = TRUE)

## # A tibble: 43 x 2
##    country       n
##    <fct>     <int>
##  1 US        50229
##  2 France    19739
##  3 Italy     17805
##  4 Spain      6021
##  5 Portugal   5222
##  6 Chile      4178
##  7 Argentina  3543
##  8 Austria    3022
##  9 Australia  2183
## 10 Germany    1990
## # ... with 33 more rows
…
There are 44 countries represented in the dataset. TOP-5 wine-producing countries are the US, France, Italy, Spain and Portugal. The US, however, has the most wine reviews in this dataset - 41.9% of the total number of the reviews. This can be explained by the fact that the data is scraped from WineEnthusiast - a U.S. based multi-channel marketer.

What are the TOP-10 most reviewed grape varieties?

wine_ratings %>%
  count(variety, sort = TRUE)

## # A tibble: 702 x 2
##    variety                      n
##    <fct>                    <int>
##  1 Pinot Noir               12191
##  2 Chardonnay               10778
##  3 Cabernet Sauvignon        8822
##  4 Red Blend                 8210
##  5 Bordeaux-style Red Blend  6380
##  6 Riesling                  4758
##  7 Sauvignon Blanc           4542
##  8 Syrah                     3822
##  9 Ros                      3214
## 10 Merlot                    2887
## # ... with 692 more rows
…
